// Jest Snapshot v1, https://goo.gl/fbAQLP

exports[`useQuery should handle request 1`] = `
Array [
  null,
  true,
  Object {
    "error": null,
    "status": -1,
  },
]
`;

exports[`useQuery should handle request 2`] = `
Array [
  Object {
    "message": "test",
  },
  false,
  Object {
    "error": null,
    "status": 201,
  },
]
`;
